 3134.148083 cm^{-1} ... 1 
  331.717041 cm^{-1} ... 1 
   32.364066 cm^{-1} ... 1 
  146.580019 cm^{-1} ... 0 
  309.502780 cm^{-1} ... 0 
  358.554209 cm^{-1} ... 0 
  402.877454 cm^{-1} ... 0 
  469.890848 cm^{-1} ... 0 
  531.311805 cm^{-1} ... 0 
  658.394996 cm^{-1} ... 0 
  705.258918 cm^{-1} ... 0 
  713.626972 cm^{-1} ... 0 
  795.640522 cm^{-1} ... 0 
 1153.676609 cm^{-1} ... 0 
 1276.467324 cm^{-1} ... 0 
 1361.680010 cm^{-1} ... 0 
 1759.122697 cm^{-1} ... 0 
 2804.779205 cm^{-1} ... 0 
 2949.728741 cm^{-1} ... 0 
 2977.424687 cm^{-1} ... 0 
 5077.709444 cm^{-1} ... 0 
