 5965.698186 cm^{-1} ... 1 
  174.115872 cm^{-1} ... 1 
   88.875051 cm^{-1} ... 0 
  287.779849 cm^{-1} ... 0 
  340.512983 cm^{-1} ... 0 
  396.964383 cm^{-1} ... 0 
  483.918013 cm^{-1} ... 0 
  828.251434 cm^{-1} ... 0 
  894.298508 cm^{-1} ... 0 
  984.410632 cm^{-1} ... 0 
 1023.703207 cm^{-1} ... 0 
 1165.578479 cm^{-1} ... 0 
 1296.293585 cm^{-1} ... 0 
 1460.929059 cm^{-1} ... 0 
 1811.480689 cm^{-1} ... 0 
 2695.094243 cm^{-1} ... 0 
 3022.786014 cm^{-1} ... 0 
 4436.698610 cm^{-1} ... 0 
